<?xml version="1.0" encoding="UTF-8" standalone="no"?>
<svg
   id="Layer_1"
   data-name="Layer 1"
   viewBox="0 0 50.000001 50.000001"
   version="1.1"
   width="50"
   height="50"
   xmlns="http://www.w3.org/2000/svg"
   xmlns:svg="http://www.w3.org/2000/svg"
   xmlns:rdf="http://www.w3.org/1999/02/22-rdf-syntax-ns#"
   xmlns:cc="http://creativecommons.org/ns#"
   xmlns:dc="http://purl.org/dc/elements/1.1/">
  <defs
     id="defs1112">
    <style
       id="style1110">.cls-1{fill-rule:evenodd;}</style>
  </defs>
  <title
     id="title1114">bearing</title>
  <path
     class="cls-1"
     d="M 25,2.672577 A 22.327423,22.327423 0 1 1 2.672577,25 22.327423,22.327423 0 0 1 25,2.672577 Z m 0,14.721417 A 7.6060052,7.6060052 0 1 1 19.621649,19.621648 7.580567,7.580567 0 0 1 25,17.393994 Z m 3.034407,4.571598 A 4.2917783,4.2917783 0 1 0 29.291778,25 4.2699742,4.2699742 0 0 0 28.034407,21.965592 Z m -0.167165,-8.481804 a 11.796031,11.796031 0 0 1 3.248814,1.344588 4.044665,4.044665 0 0 1 4.048299,-4.044665 4.0846392,4.0846392 0 0 1 1.141083,0.163531 17.948428,17.948428 0 0 0 -9.364871,-3.8811341 4.0991752,4.0991752 0 0 1 0.923041,0.6940979 4.044665,4.044665 0 0 1 0,5.7235822 z m 7.304381,5.400155 a 11.796031,11.796031 0 0 1 1.344588,3.248814 4.044665,4.044665 0 0 1 5.723583,0 4.0991752,4.0991752 0 0 1 0.694097,0.923041 17.92299,17.92299 0 0 0 -3.881133,-9.361236 4.048299,4.048299 0 0 1 -3.881135,5.189381 z m 1.344588,8.983298 a 11.796031,11.796031 0 0 1 -1.344588,3.248815 4.044665,4.044665 0 0 1 4.044666,4.048299 4.0846392,4.0846392 0 0 1 -0.163531,1.141083 17.948428,17.948428 0 0 0 3.881133,-9.364871 4.0991752,4.0991752 0 0 1 -0.694097,0.923041 4.044665,4.044665 0 0 1 -5.723583,0 z m -5.400155,7.304382 a 11.796031,11.796031 0 0 1 -3.248814,1.344587 4.044665,4.044665 0 0 1 0,5.723583 4.0991752,4.0991752 0 0 1 -0.923041,0.694098 17.92299,17.92299 0 0 0 9.361237,-3.881134 4.048299,4.048299 0 0 1 -5.189382,-3.881134 z m -8.983298,1.344587 a 11.796031,11.796031 0 0 1 -3.248815,-1.344587 4.044665,4.044665 0 0 1 -4.048299,4.044665 4.0846392,4.0846392 0 0 1 -1.141082,-0.163531 17.948428,17.948428 0 0 0 9.36487,3.881134 4.048299,4.048299 0 0 1 -0.926674,-6.417681 z m -7.304382,-5.400154 a 11.796031,11.796031 0 0 1 -1.344587,-3.248815 4.044665,4.044665 0 0 1 -5.7235832,0 3.9974226,3.9974226 0 0 1 -0.6940979,-0.923041 17.948428,17.948428 0 0 0 3.8775001,9.357603 4.1754897,4.1754897 0 0 1 -0.159897,-1.137448 4.044665,4.044665 0 0 1 4.044665,-4.048299 z m -1.344587,-8.983299 a 11.796031,11.796031 0 0 1 1.344587,-3.248814 4.048299,4.048299 0 0 1 -3.881134,-5.185748 17.92299,17.92299 0 0 0 -3.8811341,9.361237 4.0737371,4.0737371 0 0 1 3.5577071,-2.111365 4.0410309,4.0410309 0 0 1 2.859974,1.18469 z m 5.400154,-7.304381 a 11.796031,11.796031 0 0 1 3.248815,-1.344588 4.044665,4.044665 0 0 1 0,-5.7235822 3.9974226,3.9974226 0 0 1 0.923041,-0.6940979 17.92299,17.92299 0 0 0 -9.357603,3.8811341 4.044665,4.044665 0 0 1 5.185747,3.881134 z m 13.333222,2.954458 A 10.20433,10.20433 0 1 0 35.207963,25 10.175258,10.175258 0 0 0 32.217165,17.782834 Z m -21.59335,4.82598 a 2.3875515,2.3875515 0 1 0 1.689819,0.697732 2.3948196,2.3948196 0 0 0 -1.689819,-0.697732 z m 2.518376,10.865722 a 2.3911855,2.3911855 0 1 0 1.693453,-0.701367 2.3875515,2.3875515 0 0 0 -1.693453,0.701367 z m 9.466624,5.901648 a 2.3875515,2.3875515 0 1 0 0.697731,-1.689819 2.3948196,2.3948196 0 0 0 -0.697731,1.689819 z m 10.865721,-2.518376 a 2.3911855,2.3911855 0 1 0 -0.701366,-1.693453 2.3875515,2.3875515 0 0 0 0.701366,1.693453 z m 5.901649,-9.473891 a 2.3875515,2.3875515 0 1 0 -1.68982,-0.697733 2.3948196,2.3948196 0 0 0 1.68982,0.697733 z M 36.857808,16.518195 a 2.3911855,2.3911855 0 1 0 -1.693453,0.701367 2.3875515,2.3875515 0 0 0 1.693453,-0.701367 z m -9.473891,-5.89438 a 2.3875515,2.3875515 0 1 0 -0.697732,1.689819 2.3948196,2.3948196 0 0 0 0.697732,-1.689819 z M 16.518196,13.14219 a 2.3911855,2.3911855 0 1 0 0.701366,1.693454 2.3875515,2.3875515 0 0 0 -0.701366,-1.693454 z"
     id="path1116"
     style="stroke-width:0.363402" />
  <metadata
     id="metadata1538">
    <rdf:RDF>
      <cc:Work
         rdf:about="">
        <dc:title>bearing</dc:title>
      </cc:Work>
    </rdf:RDF>
  </metadata>
</svg>
